hw_3/part_2/fun_3_tb.vcd
$date
  Fri Oct  4 02:55:54 2013
$end
$version
  GHDL v0
$end
$timescale
  1 fs
$end
$var reg 3 ! a[2:0] $end
$var reg 3 " b[2:0] $end
$var reg 3 # f[2:0] $end
$scope module uut $end
$var reg 3 $ a[2:0] $end
$var reg 3 % b[2:0] $end
$var reg 3 & f[2:0] $end
$var reg 4 ' carry[3:0] $end
$scope module fun_gen(0) $end
$scope module slice_i $end
$var reg 1 ( a $end
$var reg 1 ) b $end
$var reg 1 * s $end
$var reg 1 + f $end
$var reg 1 , c_i $end
$var reg 1 - c_o $end
$upscope $end
$upscope $end
$scope module fun_gen(1) $end
$scope module slice_i $end
$var reg 1 . a $end
$var reg 1 / b $end
$var reg 1 0 s $end
$var reg 1 1 f $end
$var reg 1 2 c_i $end
$var reg 1 3 c_o $end
$upscope $end
$upscope $end
$scope module fun_gen(2) $end
$scope module slice_i $end
$var reg 1 4 a $end
$var reg 1 5 b $end
$var reg 1 6 s $end
$var reg 1 7 f $end
$var reg 1 8 c_i $end
$var reg 1 9 c_o $end
$upscope $end
$upscope $end
$upscope $end
$enddefinitions $end
#0
b000 !
b000 "
b000 #
b000 $
b000 %
b000 &
b0000 '
0(
0)
0*
0+
0,
0-
0.
0/
00
01
02
03
04
05
06
07
08
09
#10000000
b001 "
b000 #
b001 %
b000 &
b1110 '
1)
1*
0+
1-
10
12
13
16
18
19
#20000000
b010 "
b010 %
b1100 '
0)
0-
1/
02
#30000000
b011 "
b011 %
b1110 '
1)
1-
12
#40000000
b100 "
b100 %
b1000 '
0)
0-
0/
02
03
15
08
#50000000
b101 "
b101 %
b1110 '
1)
1-
12
13
18
#60000000
b110 "
b110 %
b1100 '
0)
0-
1/
02
#70000000
b111 "
b111 %
b1110 '
1)
1-
12
#80000000
b001 !
b000 "
b000 #
b001 $
b000 %
b000 &
b0000 '
1(
0)
0*
0+
0-
0/
00
02
03
05
06
08
09
#90000000
b001 "
b001 #
b001 %
b001 &
1)
1+
#100000000
b010 "
b001 #
b010 %
b001 &
b1100 '
0)
1*
1+
1/
10
01
13
16
18
19
#110000000
b011 "
b011 %
1)
#120000000
b100 "
b100 %
b1000 '
0)
0/
03
15
08
#130000000
b101 "
b101 %
1)
#140000000
b110 "
b110 %
b1100 '
0)
1/
13
18
#150000000
b111 "
b111 %
1)
#160000000
b010 !
b000 "
b000 #
b010 $
b000 %
b000 &
b0000 '
0(
0)
0*
0+
1.
0/
00
01
03
05
06
08
09
#170000000
b001 "
b001 #
b001 %
b001 &
b0010 '
1)
1+
1-
12
#180000000
b010 "
b010 #
b010 %
b010 &
b0000 '
0)
0*
0+
0-
1/
00
11
02
03
06
08
09
#190000000
b011 "
b010 #
b011 %
b010 &
b1110 '
1)
1*
0+
1-
10
12
13
16
18
19
#200000000
b100 "
b100 %
b1000 '
0)
0-
0/
02
03
15
08
#210000000
b101 "
b101 %
b1010 '
1)
1-
12
#220000000
b110 "
b110 %
b1000 '
0)
0-
1/
02
03
08
#230000000
b111 "
b111 %
b1110 '
1)
1-
12
13
18
#240000000
b011 !
b000 "
b000 #
b011 $
b000 %
b000 &
b0000 '
1(
0)
0*
0+
0-
0/
00
01
02
03
05
06
08
09
#250000000
b001 "
b001 #
b001 %
b001 &
1)
1+
#260000000
b010 "
b010 #
b010 %
b010 &
0)
0+
1/
11
#270000000
b011 "
b011 #
b011 %
b011 &
1)
1+
#280000000
b100 "
b011 #
b100 %
b011 &
b1000 '
0)
1*
1+
0/
10
11
15
16
07
19
#290000000
b101 "
b101 %
1)
#300000000
b110 "
b110 %
0)
1/
#310000000
b111 "
b111 %
1)
#320000000
b100 !
b000 "
b000 #
b100 $
b000 %
b000 &
b0000 '
0(
0)
0*
0+
0.
0/
00
01
14
05
06
07
09
#330000000
b001 "
b001 #
b001 %
b001 &
b0110 '
1)
1+
1-
12
13
18
#340000000
b010 "
b010 #
b010 %
b010 &
b0100 '
0)
0+
0-
1/
11
02
#350000000
b011 "
b011 #
b011 %
b011 &
b0110 '
1)
1+
1-
12
#360000000
b100 "
b100 #
b100 %
b100 &
b0000 '
0)
0*
0+
0-
0/
00
01
02
03
15
06
17
08
09
#370000000
b101 "
b100 #
b101 %
b100 &
b1110 '
1)
1*
0+
1-
10
12
13
16
18
19
#380000000
b110 "
b110 %
b1100 '
0)
0-
1/
02
#390000000
b111 "
b111 %
b1110 '
1)
1-
12
#400000000
b101 !
b000 "
b000 #
b101 $
b000 %
b000 &
b0000 '
1(
0)
0*
0+
0-
0/
00
02
03
05
06
07
08
09
#410000000
b001 "
b001 #
b001 %
b001 &
1)
1+
#420000000
b010 "
b010 #
b010 %
b010 &
b0100 '
0)
0+
1/
11
13
18
#430000000
b011 "
b011 #
b011 %
b011 &
1)
1+
#440000000
b100 "
b100 #
b100 %
b100 &
b0000 '
0)
0*
0+
0/
00
01
03
15
06
17
08
09
#450000000
b101 "
b101 #
b101 %
b101 &
1)
1+
#460000000
b110 "
b101 #
b110 %
b101 &
b1100 '
0)
1*
1+
1/
10
01
13
16
18
19
#470000000
b111 "
b111 %
1)
#480000000
b110 !
b000 "
b000 #
b110 $
b000 %
b000 &
b0000 '
0(
0)
0*
0+
1.
0/
00
01
03
05
06
07
08
09
#490000000
b001 "
b001 #
b001 %
b001 &
b0010 '
1)
1+
1-
12
#500000000
b010 "
b010 #
b010 %
b010 &
b0000 '
0)
0+
0-
1/
11
02
03
08
#510000000
b011 "
b011 #
b011 %
b011 &
b0110 '
1)
1+
1-
12
13
18
#520000000
b100 "
b100 #
b100 %
b100 &
b0000 '
0)
0*
0+
0-
0/
00
01
02
03
15
06
17
08
09
#530000000
b101 "
b101 #
b101 %
b101 &
b0010 '
1)
1+
1-
12
#540000000
b110 "
b110 #
b110 %
b110 &
b0000 '
0)
0*
0+
0-
1/
00
11
02
03
06
08
09
#550000000
b111 "
b110 #
b111 %
b110 &
b1110 '
1)
1*
0+
1-
10
12
13
16
18
19
#560000000
b111 !
b000 "
b000 #
b111 $
b000 %
b000 &
b0000 '
1(
0)
0*
0+
0-
0/
00
01
02
03
05
06
07
08
09
#570000000
b001 "
b001 #
b001 %
b001 &
1)
1+
#580000000
b010 "
b010 #
b010 %
b010 &
0)
0+
1/
11
#590000000
b011 "
b011 #
b011 %
b011 &
1)
1+
#600000000
b100 "
b100 #
b100 %
b100 &
0)
0+
0/
01
15
17
#610000000
b101 "
b101 #
b101 %
b101 &
1)
1+
#620000000
b110 "
b110 #
b110 %
b110 &
0)
0+
1/
11
#630000000
b111 "
b111 #
b111 %
b111 &
1)
1+
