hw_3/part_1/fun_8_tb.vcd
$date
  Fri Oct  4 02:49:05 2013
$end
$version
  GHDL v0
$end
$timescale
  1 fs
$end
$var reg 8 ! a[7:0] $end
$var reg 8 " b[7:0] $end
$var reg 8 # f[7:0] $end
$scope module uut $end
$var reg 8 $ a[7:0] $end
$var reg 8 % b[7:0] $end
$var reg 8 & f[7:0] $end
$upscope $end
$enddefinitions $end
#0
b00000000 !
b00000000 "
b00000000 #
b00000000 $
b00000000 %
b00000000 &
#10000000
b00000001 "
b00000001 %
#20000000
b00000010 "
b00000010 %
#30000000
b00000011 "
b00000011 %
#40000000
b00000100 "
b00000100 %
#50000000
b00000101 "
b00000101 %
#60000000
b00000110 "
b00000110 %
#70000000
b00000111 "
b00000111 %
#80000000
b00001000 "
b00001000 %
#90000000
b00001001 "
b00001001 %
#100000000
b00001010 "
b00001010 %
#110000000
b00001011 "
b00001011 %
#120000000
b00001100 "
b00001100 %
#130000000
b00001101 "
b00001101 %
#140000000
b00001110 "
b00001110 %
#150000000
b00001111 "
b00001111 %
#160000000
b00010000 "
b00010000 %
#170000000
b00010001 "
b00010001 %
#180000000
b00010010 "
b00010010 %
#190000000
b00010011 "
b00010011 %
#200000000
b00010100 "
b00010100 %
#210000000
b00010101 "
b00010101 %
#220000000
b00010110 "
b00010110 %
#230000000
b00010111 "
b00010111 %
#240000000
b00011000 "
b00011000 %
#250000000
b00011001 "
b00011001 %
#260000000
b00011010 "
b00011010 %
#270000000
b00011011 "
b00011011 %
#280000000
b00011100 "
b00011100 %
#290000000
b00011101 "
b00011101 %
#300000000
b00011110 "
b00011110 %
#310000000
b00011111 "
b00011111 %
#320000000
b00100000 "
b00100000 %
#330000000
b00100001 "
b00100001 %
#340000000
b00100010 "
b00100010 %
#350000000
b00100011 "
b00100011 %
#360000000
b00100100 "
b00100100 %
#370000000
b00100101 "
b00100101 %
#380000000
b00100110 "
b00100110 %
#390000000
b00100111 "
b00100111 %
#400000000
b00101000 "
b00101000 %
#410000000
b00101001 "
b00101001 %
#420000000
b00101010 "
b00101010 %
#430000000
b00101011 "
b00101011 %
#440000000
b00101100 "
b00101100 %
#450000000
b00101101 "
b00101101 %
#460000000
b00101110 "
b00101110 %
#470000000
b00101111 "
b00101111 %
#480000000
b00110000 "
b00110000 %
#490000000
b00110001 "
b00110001 %
#500000000
b00110010 "
b00110010 %
#510000000
b00110011 "
b00110011 %
#520000000
b00110100 "
b00110100 %
#530000000
b00110101 "
b00110101 %
#540000000
b00110110 "
b00110110 %
#550000000
b00110111 "
b00110111 %
#560000000
b00111000 "
b00111000 %
#570000000
b00111001 "
b00111001 %
#580000000
b00111010 "
b00111010 %
#590000000
b00111011 "
b00111011 %
#600000000
b00111100 "
b00111100 %
#610000000
b00111101 "
b00111101 %
#620000000
b00111110 "
b00111110 %
#630000000
b00111111 "
b00111111 %
#640000000
b01000000 "
b01000000 %
#650000000
b01000001 "
b01000001 %
#660000000
b01000010 "
b01000010 %
#670000000
b01000011 "
b01000011 %
#680000000
b01000100 "
b01000100 %
#690000000
b01000101 "
b01000101 %
#700000000
b01000110 "
b01000110 %
#710000000
b01000111 "
b01000111 %
#720000000
b01001000 "
b01001000 %
#730000000
b01001001 "
b01001001 %
#740000000
b01001010 "
b01001010 %
#750000000
b01001011 "
b01001011 %
#760000000
b01001100 "
b01001100 %
#770000000
b01001101 "
b01001101 %
#780000000
b01001110 "
b01001110 %
#790000000
b01001111 "
b01001111 %
#800000000
b01010000 "
b01010000 %
#810000000
b01010001 "
b01010001 %
#820000000
b01010010 "
b01010010 %
#830000000
b01010011 "
b01010011 %
#840000000
b01010100 "
b01010100 %
#850000000
b01010101 "
b01010101 %
#860000000
b01010110 "
b01010110 %
#870000000
b01010111 "
b01010111 %
#880000000
b01011000 "
b01011000 %
#890000000
b01011001 "
b01011001 %
#900000000
b01011010 "
b01011010 %
#910000000
b01011011 "
b01011011 %
#920000000
b01011100 "
b01011100 %
#930000000
b01011101 "
b01011101 %
#940000000
b01011110 "
b01011110 %
#950000000
b01011111 "
b01011111 %
#960000000
b01100000 "
b01100000 %
#970000000
b01100001 "
b01100001 %
#980000000
b01100010 "
b01100010 %
#990000000
b01100011 "
b01100011 %
#1000000000
b01100100 "
b01100100 %
#1010000000
b01100101 "
b01100101 %
#1020000000
b01100110 "
b01100110 %
#1030000000
b01100111 "
b01100111 %
#1040000000
b01101000 "
b01101000 %
#1050000000
b01101001 "
b01101001 %
#1060000000
b01101010 "
b01101010 %
#1070000000
b01101011 "
b01101011 %
#1080000000
b01101100 "
b01101100 %
#1090000000
b01101101 "
b01101101 %
#1100000000
b01101110 "
b01101110 %
#1110000000
b01101111 "
b01101111 %
#1120000000
b01110000 "
b01110000 %
#1130000000
b01110001 "
b01110001 %
#1140000000
b01110010 "
b01110010 %
#1150000000
b01110011 "
b01110011 %
#1160000000
b01110100 "
b01110100 %
#1170000000
b01110101 "
b01110101 %
#1180000000
b01110110 "
b01110110 %
#1190000000
b01110111 "
b01110111 %
#1200000000
b01111000 "
b01111000 %
#1210000000
b01111001 "
b01111001 %
#1220000000
b01111010 "
b01111010 %
#1230000000
b01111011 "
b01111011 %
#1240000000
b01111100 "
b01111100 %
#1250000000
b01111101 "
b01111101 %
#1260000000
b01111110 "
b01111110 %
#1270000000
b01111111 "
b01111111 %
#1280000000
b10000000 "
b10000000 %
#1290000000
b10000001 "
b10000001 %
#1300000000
b10000010 "
b10000010 %
#1310000000
b10000011 "
b10000011 %
#1320000000
b10000100 "
b10000100 %
#1330000000
b10000101 "
b10000101 %
#1340000000
b10000110 "
b10000110 %
#1350000000
b10000111 "
b10000111 %
#1360000000
b10001000 "
b10001000 %
#1370000000
b10001001 "
b10001001 %
#1380000000
b10001010 "
b10001010 %
#1390000000
b10001011 "
b10001011 %
#1400000000
b10001100 "
b10001100 %
#1410000000
b10001101 "
b10001101 %
#1420000000
b10001110 "
b10001110 %
#1430000000
b10001111 "
b10001111 %
#1440000000
b10010000 "
b10010000 %
#1450000000
b10010001 "
b10010001 %
#1460000000
b10010010 "
b10010010 %
#1470000000
b10010011 "
b10010011 %
#1480000000
b10010100 "
b10010100 %
#1490000000
b10010101 "
b10010101 %
#1500000000
b10010110 "
b10010110 %
#1510000000
b10010111 "
b10010111 %
#1520000000
b10011000 "
b10011000 %
#1530000000
b10011001 "
b10011001 %
#1540000000
b10011010 "
b10011010 %
#1550000000
b10011011 "
b10011011 %
#1560000000
b10011100 "
b10011100 %
#1570000000
b10011101 "
b10011101 %
#1580000000
b10011110 "
b10011110 %
#1590000000
b10011111 "
b10011111 %
#1600000000
b10100000 "
b10100000 %
#1610000000
b10100001 "
b10100001 %
#1620000000
b10100010 "
b10100010 %
#1630000000
b10100011 "
b10100011 %
#1640000000
b10100100 "
b10100100 %
#1650000000
b10100101 "
b10100101 %
#1660000000
b10100110 "
b10100110 %
#1670000000
b10100111 "
b10100111 %
#1680000000
b10101000 "
b10101000 %
#1690000000
b10101001 "
b10101001 %
#1700000000
b10101010 "
b10101010 %
#1710000000
b10101011 "
b10101011 %
#1720000000
b10101100 "
b10101100 %
#1730000000
b10101101 "
b10101101 %
#1740000000
b10101110 "
b10101110 %
#1750000000
b10101111 "
b10101111 %
#1760000000
b10110000 "
b10110000 %
#1770000000
b10110001 "
b10110001 %
#1780000000
b10110010 "
b10110010 %
#1790000000
b10110011 "
b10110011 %
#1800000000
b10110100 "
b10110100 %
#1810000000
b10110101 "
b10110101 %
#1820000000
b10110110 "
b10110110 %
#1830000000
b10110111 "
b10110111 %
#1840000000
b10111000 "
b10111000 %
#1850000000
b10111001 "
b10111001 %
#1860000000
b10111010 "
b10111010 %
#1870000000
b10111011 "
b10111011 %
#1880000000
b10111100 "
b10111100 %
#1890000000
b10111101 "
b10111101 %
#1900000000
b10111110 "
b10111110 %
#1910000000
b10111111 "
b10111111 %
#1920000000
b11000000 "
b11000000 %
#1930000000
b11000001 "
b11000001 %
#1940000000
b11000010 "
b11000010 %
#1950000000
b11000011 "
b11000011 %
#1960000000
b11000100 "
b11000100 %
#1970000000
b11000101 "
b11000101 %
#1980000000
b11000110 "
b11000110 %
#1990000000
b11000111 "
b11000111 %
#2000000000
b11001000 "
b11001000 %
#2010000000
b11001001 "
b11001001 %
#2020000000
b11001010 "
b11001010 %
#2030000000
b11001011 "
b11001011 %
#2040000000
b11001100 "
b11001100 %
#2050000000
b11001101 "
b11001101 %
#2060000000
b11001110 "
b11001110 %
#2070000000
b11001111 "
b11001111 %
#2080000000
b11010000 "
b11010000 %
#2090000000
b11010001 "
b11010001 %
#2100000000
b11010010 "
b11010010 %
#2110000000
b11010011 "
b11010011 %
#2120000000
b11010100 "
b11010100 %
#2130000000
b11010101 "
b11010101 %
#2140000000
b11010110 "
b11010110 %
#2150000000
b11010111 "
b11010111 %
#2160000000
b11011000 "
b11011000 %
#2170000000
b11011001 "
b11011001 %
#2180000000
b11011010 "
b11011010 %
#2190000000
b11011011 "
b11011011 %
#2200000000
b11011100 "
b11011100 %
#2210000000
b11011101 "
b11011101 %
#2220000000
b11011110 "
b11011110 %
#2230000000
b11011111 "
b11011111 %
#2240000000
b11100000 "
b11100000 %
#2250000000
b11100001 "
b11100001 %
#2260000000
b11100010 "
b11100010 %
#2270000000
b11100011 "
b11100011 %
#2280000000
b11100100 "
b11100100 %
#2290000000
b11100101 "
b11100101 %
#2300000000
b11100110 "
b11100110 %
#2310000000
b11100111 "
b11100111 %
#2320000000
b11101000 "
b11101000 %
#2330000000
b11101001 "
b11101001 %
#2340000000
b11101010 "
b11101010 %
#2350000000
b11101011 "
b11101011 %
#2360000000
b11101100 "
b11101100 %
#2370000000
b11101101 "
b11101101 %
#2380000000
b11101110 "
b11101110 %
#2390000000
b11101111 "
b11101111 %
#2400000000
b11110000 "
b11110000 %
#2410000000
b11110001 "
b11110001 %
#2420000000
b11110010 "
b11110010 %
#2430000000
b11110011 "
b11110011 %
#2440000000
b11110100 "
b11110100 %
#2450000000
b11110101 "
b11110101 %
#2460000000
b11110110 "
b11110110 %
#2470000000
b11110111 "
b11110111 %
#2480000000
b11111000 "
b11111000 %
#2490000000
b11111001 "
b11111001 %
#2500000000
b11111010 "
b11111010 %
#2510000000
b11111011 "
b11111011 %
#2520000000
b11111100 "
b11111100 %
#2530000000
b11111101 "
b11111101 %
#2540000000
b11111110 "
b11111110 %
#2550000000
b11111111 "
b11111111 %
#2560000000
b00000001 !
b00000000 "
b00000001 $
b00000000 %
#2570000000
b00000001 "
b00000001 #
b00000001 %
b00000001 &
#2580000000
b00000010 "
b00000010 %
#2590000000
b00000011 "
b00000011 %
#2600000000
b00000100 "
b00000100 %
#2610000000
b00000101 "
b00000101 %
#2620000000
b00000110 "
b00000110 %
#2630000000
b00000111 "
b00000111 %
#2640000000
b00001000 "
b00001000 %
#2650000000
b00001001 "
b00001001 %
#2660000000
b00001010 "
b00001010 %
#2670000000
b00001011 "
b00001011 %
#2680000000
b00001100 "
b00001100 %
#2690000000
b00001101 "
b00001101 %
#2700000000
b00001110 "
b00001110 %
#2710000000
b00001111 "
b00001111 %
#2720000000
b00010000 "
b00010000 %
#2730000000
b00010001 "
b00010001 %
#2740000000
b00010010 "
b00010010 %
#2750000000
b00010011 "
b00010011 %
#2760000000
b00010100 "
b00010100 %
#2770000000
b00010101 "
b00010101 %
#2780000000
b00010110 "
b00010110 %
#2790000000
b00010111 "
b00010111 %
#2800000000
b00011000 "
b00011000 %
#2810000000
b00011001 "
b00011001 %
#2820000000
b00011010 "
b00011010 %
#2830000000
b00011011 "
b00011011 %
#2840000000
b00011100 "
b00011100 %
#2850000000
b00011101 "
b00011101 %
#2860000000
b00011110 "
b00011110 %
#2870000000
b00011111 "
b00011111 %
#2880000000
b00100000 "
b00100000 %
#2890000000
b00100001 "
b00100001 %
#2900000000
b00100010 "
b00100010 %
#2910000000
b00100011 "
b00100011 %
#2920000000
b00100100 "
b00100100 %
#2930000000
b00100101 "
b00100101 %
#2940000000
b00100110 "
b00100110 %
#2950000000
b00100111 "
b00100111 %
#2960000000
b00101000 "
b00101000 %
#2970000000
b00101001 "
b00101001 %
#2980000000
b00101010 "
b00101010 %
#2990000000
b00101011 "
b00101011 %
#3000000000
b00101100 "
b00101100 %
#3010000000
b00101101 "
b00101101 %
#3020000000
b00101110 "
b00101110 %
#3030000000
b00101111 "
b00101111 %
#3040000000
b00110000 "
b00110000 %
#3050000000
b00110001 "
b00110001 %
#3060000000
b00110010 "
b00110010 %
#3070000000
b00110011 "
b00110011 %
#3080000000
b00110100 "
b00110100 %
#3090000000
b00110101 "
b00110101 %
#3100000000
b00110110 "
b00110110 %
#3110000000
b00110111 "
b00110111 %
#3120000000
b00111000 "
b00111000 %
#3130000000
b00111001 "
b00111001 %
#3140000000
b00111010 "
b00111010 %
#3150000000
b00111011 "
b00111011 %
#3160000000
b00111100 "
b00111100 %
#3170000000
b00111101 "
b00111101 %
#3180000000
b00111110 "
b00111110 %
#3190000000
b00111111 "
b00111111 %
#3200000000
b01000000 "
b01000000 %
#3210000000
b01000001 "
b01000001 %
#3220000000
b01000010 "
b01000010 %
#3230000000
b01000011 "
b01000011 %
#3240000000
b01000100 "
b01000100 %
#3250000000
b01000101 "
b01000101 %
#3260000000
b01000110 "
b01000110 %
#3270000000
b01000111 "
b01000111 %
#3280000000
b01001000 "
b01001000 %
#3290000000
b01001001 "
b01001001 %
#3300000000
b01001010 "
b01001010 %
#3310000000
b01001011 "
b01001011 %
#3320000000
b01001100 "
b01001100 %
#3330000000
b01001101 "
b01001101 %
#3340000000
b01001110 "
b01001110 %
#3350000000
b01001111 "
b01001111 %
#3360000000
b01010000 "
b01010000 %
#3370000000
b01010001 "
b01010001 %
#3380000000
b01010010 "
b01010010 %
#3390000000
b01010011 "
b01010011 %
#3400000000
b01010100 "
b01010100 %
#3410000000
b01010101 "
b01010101 %
#3420000000
b01010110 "
b01010110 %
#3430000000
b01010111 "
b01010111 %
#3440000000
b01011000 "
b01011000 %
#3450000000
b01011001 "
b01011001 %
#3460000000
b01011010 "
b01011010 %
#3470000000
b01011011 "
b01011011 %
#3480000000
b01011100 "
b01011100 %
#3490000000
b01011101 "
b01011101 %
#3500000000
b01011110 "
b01011110 %
#3510000000
b01011111 "
b01011111 %
#3520000000
b01100000 "
b01100000 %
#3530000000
b01100001 "
b01100001 %
#3540000000
b01100010 "
b01100010 %
#3550000000
b01100011 "
b01100011 %
#3560000000
b01100100 "
b01100100 %
#3570000000
b01100101 "
b01100101 %
#3580000000
b01100110 "
b01100110 %
#3590000000
b01100111 "
b01100111 %
#3600000000
b01101000 "
b01101000 %
#3610000000
b01101001 "
b01101001 %
#3620000000
b01101010 "
b01101010 %
#3630000000
b01101011 "
b01101011 %
#3640000000
b01101100 "
b01101100 %
#3650000000
b01101101 "
b01101101 %
#3660000000
b01101110 "
b01101110 %
#3670000000
b01101111 "
b01101111 %
#3680000000
b01110000 "
b01110000 %
#3690000000
b01110001 "
b01110001 %
#3700000000
b01110010 "
b01110010 %
#3710000000
b01110011 "
b01110011 %
#3720000000
b01110100 "
b01110100 %
#3730000000
b01110101 "
b01110101 %
#3740000000
b01110110 "
b01110110 %
#3750000000
b01110111 "
b01110111 %
#3760000000
b01111000 "
b01111000 %
#3770000000
b01111001 "
b01111001 %
#3780000000
b01111010 "
b01111010 %
#3790000000
b01111011 "
b01111011 %
#3800000000
b01111100 "
b01111100 %
#3810000000
b01111101 "
b01111101 %
#3820000000
b01111110 "
b01111110 %
#3830000000
b01111111 "
b01111111 %
#3840000000
b10000000 "
b10000000 %
#3850000000
b10000001 "
b10000001 %
#3860000000
b10000010 "
b10000010 %
#3870000000
b10000011 "
b10000011 %
#3880000000
b10000100 "
b10000100 %
#3890000000
b10000101 "
b10000101 %
#3900000000
b10000110 "
b10000110 %
#3910000000
b10000111 "
b10000111 %
#3920000000
b10001000 "
b10001000 %
#3930000000
b10001001 "
b10001001 %
#3940000000
b10001010 "
b10001010 %
#3950000000
b10001011 "
b10001011 %
#3960000000
b10001100 "
b10001100 %
#3970000000
b10001101 "
b10001101 %
#3980000000
b10001110 "
b10001110 %
#3990000000
b10001111 "
b10001111 %
#4000000000
b10010000 "
b10010000 %
#4010000000
b10010001 "
b10010001 %
#4020000000
b10010010 "
b10010010 %
#4030000000
b10010011 "
b10010011 %
#4040000000
b10010100 "
b10010100 %
#4050000000
b10010101 "
b10010101 %
#4060000000
b10010110 "
b10010110 %
#4070000000
b10010111 "
b10010111 %
#4080000000
b10011000 "
b10011000 %
#4090000000
b10011001 "
b10011001 %
#4100000000
b10011010 "
b10011010 %
#4110000000
b10011011 "
b10011011 %
#4120000000
b10011100 "
b10011100 %
#4130000000
b10011101 "
b10011101 %
#4140000000
b10011110 "
b10011110 %
#4150000000
b10011111 "
b10011111 %
#4160000000
b10100000 "
b10100000 %
#4170000000
b10100001 "
b10100001 %
#4180000000
b10100010 "
b10100010 %
#4190000000
b10100011 "
b10100011 %
#4200000000
b10100100 "
b10100100 %
#4210000000
b10100101 "
b10100101 %
#4220000000
b10100110 "
b10100110 %
#4230000000
b10100111 "
b10100111 %
#4240000000
b10101000 "
b10101000 %
#4250000000
b10101001 "
b10101001 %
#4260000000
b10101010 "
b10101010 %
#4270000000
b10101011 "
b10101011 %
#4280000000
b10101100 "
b10101100 %
#4290000000
b10101101 "
b10101101 %
#4300000000
b10101110 "
b10101110 %
#4310000000
b10101111 "
b10101111 %
#4320000000
b10110000 "
b10110000 %
#4330000000
b10110001 "
b10110001 %
#4340000000
b10110010 "
b10110010 %
#4350000000
b10110011 "
b10110011 %
#4360000000
b10110100 "
b10110100 %
#4370000000
b10110101 "
b10110101 %
#4380000000
b10110110 "
b10110110 %
#4390000000
b10110111 "
b10110111 %
#4400000000
b10111000 "
b10111000 %
#4410000000
b10111001 "
b10111001 %
#4420000000
b10111010 "
b10111010 %
#4430000000
b10111011 "
b10111011 %
#4440000000
b10111100 "
b10111100 %
#4450000000
b10111101 "
b10111101 %
#4460000000
b10111110 "
b10111110 %
#4470000000
b10111111 "
b10111111 %
#4480000000
b11000000 "
b11000000 %
#4490000000
b11000001 "
b11000001 %
#4500000000
b11000010 "
b11000010 %
#4510000000
b11000011 "
b11000011 %
#4520000000
b11000100 "
b11000100 %
#4530000000
b11000101 "
b11000101 %
#4540000000
b11000110 "
b11000110 %
#4550000000
b11000111 "
b11000111 %
#4560000000
b11001000 "
b11001000 %
#4570000000
b11001001 "
b11001001 %
#4580000000
b11001010 "
b11001010 %
#4590000000
b11001011 "
b11001011 %
#4600000000
b11001100 "
b11001100 %
#4610000000
b11001101 "
b11001101 %
#4620000000
b11001110 "
b11001110 %
#4630000000
b11001111 "
b11001111 %
#4640000000
b11010000 "
b11010000 %
#4650000000
b11010001 "
b11010001 %
#4660000000
b11010010 "
b11010010 %
#4670000000
b11010011 "
b11010011 %
#4680000000
b11010100 "
b11010100 %
#4690000000
b11010101 "
b11010101 %
#4700000000
b11010110 "
b11010110 %
#4710000000
b11010111 "
b11010111 %
#4720000000
b11011000 "
b11011000 %
#4730000000
b11011001 "
b11011001 %
#4740000000
b11011010 "
b11011010 %
#4750000000
b11011011 "
b11011011 %
#4760000000
b11011100 "
b11011100 %
#4770000000
b11011101 "
b11011101 %
#4780000000
b11011110 "
b11011110 %
#4790000000
b11011111 "
b11011111 %
#4800000000
b11100000 "
b11100000 %
#4810000000
b11100001 "
b11100001 %
#4820000000
b11100010 "
b11100010 %
#4830000000
b11100011 "
b11100011 %
#4840000000
b11100100 "
b11100100 %
#4850000000
b11100101 "
b11100101 %
#4860000000
b11100110 "
b11100110 %
#4870000000
b11100111 "
b11100111 %
#4880000000
b11101000 "
b11101000 %
#4890000000
b11101001 "
b11101001 %
#4900000000
b11101010 "
b11101010 %
#4910000000
b11101011 "
b11101011 %
#4920000000
b11101100 "
b11101100 %
#4930000000
b11101101 "
b11101101 %
#4940000000
b11101110 "
b11101110 %
#4950000000
b11101111 "
b11101111 %
#4960000000
b11110000 "
b11110000 %
#4970000000
b11110001 "
b11110001 %
#4980000000
b11110010 "
b11110010 %
#4990000000
b11110011 "
b11110011 %
#5000000000
b11110100 "
b11110100 %
#5010000000
b11110101 "
b11110101 %
#5020000000
b11110110 "
b11110110 %
#5030000000
b11110111 "
b11110111 %
#5040000000
b11111000 "
b11111000 %
#5050000000
b11111001 "
b11111001 %
#5060000000
b11111010 "
b11111010 %
#5070000000
b11111011 "
b11111011 %
#5080000000
b11111100 "
b11111100 %
#5090000000
b11111101 "
b11111101 %
#5100000000
b11111110 "
b11111110 %
#5110000000
b11111111 "
b11111111 %
#5120000000
b00000010 !
b00000000 "
b00000000 #
b00000010 $
b00000000 %
b00000000 &
#5130000000
b00000001 "
b00000001 #
b00000001 %
b00000001 &
#5140000000
b00000010 "
b00000010 #
b00000010 %
b00000010 &
#5150000000
b00000011 "
b00000011 %
#5160000000
b00000100 "
b00000100 %
#5170000000
b00000101 "
b00000101 %
#5180000000
b00000110 "
b00000110 %
#5190000000
b00000111 "
b00000111 %
#5200000000
b00001000 "
b00001000 %
#5210000000
b00001001 "
b00001001 %
#5220000000
b00001010 "
b00001010 %
#5230000000
b00001011 "
b00001011 %
#5240000000
b00001100 "
b00001100 %
#5250000000
b00001101 "
b00001101 %
#5260000000
b00001110 "
b00001110 %
#5270000000
b00001111 "
b00001111 %
#5280000000
b00010000 "
b00010000 %
#5290000000
b00010001 "
b00010001 %
#5300000000
b00010010 "
b00010010 %
#5310000000
b00010011 "
b00010011 %
#5320000000
b00010100 "
b00010100 %
#5330000000
b00010101 "
b00010101 %
#5340000000
b00010110 "
b00010110 %
#5350000000
b00010111 "
b00010111 %
#5360000000
b00011000 "
b00011000 %
#5370000000
b00011001 "
b00011001 %
#5380000000
b00011010 "
b00011010 %
#5390000000
b00011011 "
b00011011 %
#5400000000
b00011100 "
b00011100 %
#5410000000
b00011101 "
b00011101 %
#5420000000
b00011110 "
b00011110 %
#5430000000
b00011111 "
b00011111 %
#5440000000
b00100000 "
b00100000 %
#5450000000
b00100001 "
b00100001 %
#5460000000
b00100010 "
b00100010 %
#5470000000
b00100011 "
b00100011 %
#5480000000
b00100100 "
b00100100 %
#5490000000
b00100101 "
b00100101 %
#5500000000
b00100110 "
b00100110 %
#5510000000
b00100111 "
b00100111 %
#5520000000
b00101000 "
b00101000 %
#5530000000
b00101001 "
b00101001 %
#5540000000
b00101010 "
b00101010 %
#5550000000
b00101011 "
b00101011 %
#5560000000
b00101100 "
b00101100 %
#5570000000
b00101101 "
b00101101 %
#5580000000
b00101110 "
b00101110 %
#5590000000
b00101111 "
b00101111 %
#5600000000
b00110000 "
b00110000 %
#5610000000
b00110001 "
b00110001 %
#5620000000
b00110010 "
b00110010 %
#5630000000
b00110011 "
b00110011 %
#5640000000
b00110100 "
b00110100 %
#5650000000
b00110101 "
b00110101 %
#5660000000
b00110110 "
b00110110 %
#5670000000
b00110111 "
b00110111 %
#5680000000
b00111000 "
b00111000 %
#5690000000
b00111001 "
b00111001 %
#5700000000
b00111010 "
b00111010 %
#5710000000
b00111011 "
b00111011 %
#5720000000
b00111100 "
b00111100 %
#5730000000
b00111101 "
b00111101 %
#5740000000
b00111110 "
b00111110 %
#5750000000
b00111111 "
b00111111 %
#5760000000
b01000000 "
b01000000 %
#5770000000
b01000001 "
b01000001 %
#5780000000
b01000010 "
b01000010 %
#5790000000
b01000011 "
b01000011 %
#5800000000
b01000100 "
b01000100 %
#5810000000
b01000101 "
b01000101 %
#5820000000
b01000110 "
b01000110 %
#5830000000
b01000111 "
b01000111 %
#5840000000
b01001000 "
b01001000 %
#5850000000
b01001001 "
b01001001 %
#5860000000
b01001010 "
b01001010 %
#5870000000
b01001011 "
b01001011 %
#5880000000
b01001100 "
b01001100 %
#5890000000
b01001101 "
b01001101 %
#5900000000
b01001110 "
b01001110 %
#5910000000
b01001111 "
b01001111 %
#5920000000
b01010000 "
b01010000 %
#5930000000
b01010001 "
b01010001 %
#5940000000
b01010010 "
b01010010 %
#5950000000
b01010011 "
b01010011 %
#5960000000
b01010100 "
b01010100 %
#5970000000
b01010101 "
b01010101 %
#5980000000
b01010110 "
b01010110 %
#5990000000
b01010111 "
b01010111 %
#6000000000
b01011000 "
b01011000 %
#6010000000
b01011001 "
b01011001 %
#6020000000
b01011010 "
b01011010 %
#6030000000
b01011011 "
b01011011 %
#6040000000
b01011100 "
b01011100 %
#6050000000
b01011101 "
b01011101 %
#6060000000
b01011110 "
b01011110 %
#6070000000
b01011111 "
b01011111 %
#6080000000
b01100000 "
b01100000 %
#6090000000
b01100001 "
b01100001 %
#6100000000
b01100010 "
b01100010 %
#6110000000
b01100011 "
b01100011 %
#6120000000
b01100100 "
b01100100 %
#6130000000
b01100101 "
b01100101 %
#6140000000
b01100110 "
b01100110 %
#6150000000
b01100111 "
b01100111 %
#6160000000
b01101000 "
b01101000 %
#6170000000
b01101001 "
b01101001 %
#6180000000
b01101010 "
b01101010 %
#6190000000
b01101011 "
b01101011 %
#6200000000
b01101100 "
b01101100 %
#6210000000
b01101101 "
b01101101 %
#6220000000
b01101110 "
b01101110 %
#6230000000
b01101111 "
b01101111 %
#6240000000
b01110000 "
b01110000 %
#6250000000
b01110001 "
b01110001 %
#6260000000
b01110010 "
b01110010 %
#6270000000
b01110011 "
b01110011 %
#6280000000
b01110100 "
b01110100 %
#6290000000
b01110101 "
b01110101 %
#6300000000
b01110110 "
b01110110 %
#6310000000
b01110111 "
b01110111 %
#6320000000
b01111000 "
b01111000 %
#6330000000
b01111001 "
b01111001 %
#6340000000
b01111010 "
b01111010 %
#6350000000
b01111011 "
b01111011 %
#6360000000
b01111100 "
b01111100 %
#6370000000
b01111101 "
b01111101 %
#6380000000
b01111110 "
b01111110 %
#6390000000
b01111111 "
b01111111 %
#6400000000
b10000000 "
b10000000 %
#6410000000
b10000001 "
b10000001 %
#6420000000
b10000010 "
b10000010 %
#6430000000
b10000011 "
b10000011 %
#6440000000
b10000100 "
b10000100 %
#6450000000
b10000101 "
b10000101 %
#6460000000
b10000110 "
b10000110 %
#6470000000
b10000111 "
b10000111 %
#6480000000
b10001000 "
b10001000 %
#6490000000
b10001001 "
b10001001 %
#6500000000
b10001010 "
b10001010 %
#6510000000
b10001011 "
b10001011 %
#6520000000
b10001100 "
b10001100 %
#6530000000
b10001101 "
b10001101 %
#6540000000
b10001110 "
b10001110 %
#6550000000
b10001111 "
b10001111 %
#6560000000
b10010000 "
b10010000 %
#6570000000
b10010001 "
b10010001 %
#6580000000
b10010010 "
b10010010 %
#6590000000
b10010011 "
b10010011 %
#6600000000
b10010100 "
b10010100 %
#6610000000
b10010101 "
b10010101 %
#6620000000
b10010110 "
b10010110 %
#6630000000
b10010111 "
b10010111 %
#6640000000
b10011000 "
b10011000 %
#6650000000
b10011001 "
b10011001 %
#6660000000
b10011010 "
b10011010 %
#6670000000
b10011011 "
b10011011 %
#6680000000
b10011100 "
b10011100 %
#6690000000
b10011101 "
b10011101 %
#6700000000
b10011110 "
b10011110 %
#6710000000
b10011111 "
b10011111 %
#6720000000
b10100000 "
b10100000 %
#6730000000
b10100001 "
b10100001 %
#6740000000
b10100010 "
b10100010 %
#6750000000
b10100011 "
b10100011 %
#6760000000
b10100100 "
b10100100 %
#6770000000
b10100101 "
b10100101 %
#6780000000
b10100110 "
b10100110 %
#6790000000
b10100111 "
b10100111 %
#6800000000
b10101000 "
b10101000 %
#6810000000
b10101001 "
b10101001 %
#6820000000
b10101010 "
b10101010 %
#6830000000
b10101011 "
b10101011 %
#6840000000
b10101100 "
b10101100 %
#6850000000
b10101101 "
b10101101 %
#6860000000
b10101110 "
b10101110 %
#6870000000
b10101111 "
b10101111 %
#6880000000
b10110000 "
b10110000 %
#6890000000
b10110001 "
b10110001 %
#6900000000
b10110010 "
b10110010 %
#6910000000
b10110011 "
b10110011 %
#6920000000
b10110100 "
b10110100 %
#6930000000
b10110101 "
b10110101 %
#6940000000
b10110110 "
b10110110 %
#6950000000
b10110111 "
b10110111 %
#6960000000
b10111000 "
b10111000 %
#6970000000
b10111001 "
b10111001 %
#6980000000
b10111010 "
b10111010 %
#6990000000
b10111011 "
b10111011 %
#7000000000
b10111100 "
b10111100 %
#7010000000
b10111101 "
b10111101 %
#7020000000
b10111110 "
b10111110 %
#7030000000
b10111111 "
b10111111 %
#7040000000
b11000000 "
b11000000 %
#7050000000
b11000001 "
b11000001 %
#7060000000
b11000010 "
b11000010 %
#7070000000
b11000011 "
b11000011 %
#7080000000
b11000100 "
b11000100 %
#7090000000
b11000101 "
b11000101 %
#7100000000
b11000110 "
b11000110 %
#7110000000
b11000111 "
b11000111 %
#7120000000
b11001000 "
b11001000 %
#7130000000
b11001001 "
b11001001 %
#7140000000
b11001010 "
b11001010 %
#7150000000
b11001011 "
b11001011 %
#7160000000
b11001100 "
b11001100 %
#7170000000
b11001101 "
b11001101 %
#7180000000
b11001110 "
b11001110 %
#7190000000
b11001111 "
b11001111 %
#7200000000
b11010000 "
b11010000 %
#7210000000
b11010001 "
b11010001 %
#7220000000
b11010010 "
b11010010 %
#7230000000
b11010011 "
b11010011 %
#7240000000
b11010100 "
b11010100 %
#7250000000
b11010101 "
b11010101 %
#7260000000
b11010110 "
b11010110 %
#7270000000
b11010111 "
b11010111 %
#7280000000
b11011000 "
b11011000 %
#7290000000
b11011001 "
b11011001 %
#7300000000
b11011010 "
b11011010 %
#7310000000
b11011011 "
b11011011 %
#7320000000
b11011100 "
b11011100 %
#7330000000
b11011101 "
b11011101 %
#7340000000
b11011110 "
b11011110 %
#7350000000
b11011111 "
b11011111 %
#7360000000
b11100000 "
b11100000 %
#7370000000
b11100001 "
b11100001 %
#7380000000
b11100010 "
b11100010 %
